…
## Penggunaan
Terdapat dua fungsi utama dalam package ini:
* `create_filter()` digunakan untuk membuat filter yang diinginkan
* `imputation_sample()` digunakan untuk memilih sampel imputasi dari filter yang telah dibuat dengan total weight tertentu
* `mutate_sample()` digunakan untuk mengubah nilai atribut-atribut tertentu dari sampel yang telah dipilh yang teridentifikasi dengan flag tertentu

## Implementasi
```r
library(imputationSample)

sakernas_dummy
#> # A tibble: 3,727 x 225
#>   urutan tahun Weight_R SMT   KODE_PROV NAMA_PROV KODE_KAB NAMA_KAB KLASIFIKASI NO_DSRT KRT_DSRT ALAMAT NBANGS NBF  
#>    <dbl> <dbl>    <dbl> <chr> <dbl+lbl> <chr>        <dbl> <chr>    <dbl+lbl>     <dbl> <chr>    <chr>  <chr>  <chr>
#> 1     12 20182     1078 1     11        ACEH             1 SIMEULUE 2                 4 ARISUDIN JLN T~ 042    042  
#> 2     22 20182      666 1     11        ACEH             1 SIMEULUE 2                 6 SURIADIN JL TG~ 070    070  
#> 3     27 20182      508 1     11        ACEH             1 SIMEULUE 2                 7 EDI SAH~ JL TG~ 081    081  
#> 4     47 20182      694 1     11        ACEH             1 SIMEULUE 2                 2 AFRIZAL  KAMPU~ 023    006  
#> 5     57 20182      516 1     11        ACEH             1 SIMEULUE 2                 4 MUHAMMAD KAMPU~ 047    019  
#> 6     63 20182      677 1     11        ACEH             1 SIMEULUE 2                 7 JOHN VA~ KAMPU~ 099    024  
#> 7    111 20182      621 1     11        ACEH             1 SIMEULUE 2                 1 JAKRIL   DUSUN~ 004    004  
#> 8    125 20182      718 1     11        ACEH             1 SIMEULUE 2                 4 SARIFUD~ DUSUN~ 045    042  
#> 9    150 20182      859 1     11        ACEH             1 SIMEULUE 2                10 SULDANI  DUSUN~ 021    019  
#> 10    169 20182      910 1     11        ACEH             1 SIMEULUE 2                 3 SULRAHM~ DUSUN~ 016    016  
#> # ... with 3,717 more rows, and 211 more variables: STATUS_DOK <chr>, USERNAME <chr>, NAMA <chr>, B1_R9 <chr>,
…
